verilator/dump.vcd
$version Generated by VerilatedVcd $end
$timescale 1ps $end
 $scope module top $end
  $scope module $unit $end
   $var wire 32 = X_I [31:0] $end
   $var wire 32 > X_F [31:0] $end
   $var wire 32 ? X_W [31:0] $end
   $var wire 32 @ Y_I [31:0] $end
   $var wire 32 > Y_F [31:0] $end
   $var wire 32 A Y_W [31:0] $end
  $upscope $end
  $var wire 1 ) clk $end
  $var wire 1 * rst_b $end
  $var wire 24 + x [23:0] $end
  $var wire 1 , x_dv $end
  $var wire 25 - y [24:0] $end
  $var wire 1 . y_dv $end
  $scope module quadra_top $end
   $var wire 1 ) clk $end
   $var wire 1 * rst_b $end
   $var wire 24 + x [23:0] $end
   $var wire 1 , x_dv $end
   $var wire 25 - y [24:0] $end
   $var wire 1 . y_dv $end
   $var wire 1 & dv_p0 $end
   $var wire 1 ' dv_p1 $end
   $var wire 1 ( dv_p2 $end
   $var wire 7 / x1 [23:17] $end
   $var wire 17 0 x2 [16:0] $end
   $var wire 32 # a [31:0] $end
   $var wire 32 $ b [31:0] $end
   $var wire 32 % c [31:0] $end
   $var wire 25 - y_q [24:0] $end
   $scope module lut_inst $end
    $var wire 7 / x1 [23:17] $end
    $var wire 32 # a [31:0] $end
    $var wire 32 $ b [31:0] $end
    $var wire 32 % c [31:0] $end
   $upscope $end
   $scope module quadra_inst $end
    $var wire 17 0 x2 [16:0] $end
    $var wire 32 # a [31:0] $end
    $var wire 32 $ b [31:0] $end
    $var wire 32 % c [31:0] $end
    $var wire 25 - y [24:0] $end
    $var wire 34 1 x2_sq [33:0] $end
    $var wire 18 3 x2_ext [17:0] $end
    $var wire 49 4 bx2_long [48:0] $end
    $var wire 66 6 cx2sq_long [65:0] $end
    $var wire 32 9 bx2_sft [31:0] $end
    $var wire 32 : cx2_sft [31:0] $end
    $var wire 35 ; y_long [34:0] $end
    $scope module sq_unit $end
     $var wire 17 0 x2 [16:0] $end
     $var wire 34 1 sq [33:0] $end
    $upscope $end
   $upscope $end
  $upscope $end
 $upscope $end
$enddefinitions $end


#500
b11110100101011111011000011001101 #
b00010110101000001001111001100110 $
b00010110101000001001111001100110 %
0&
0'
1(
0)
1*
b000000000000000000000000 +
0,
b1111010010101111101100001 -
1.
b0000000 /
b00000000000000000 0
b0000000000000000000000000000000000 1
b000000000000000000 3
b0000000000000000000000000000000000000000000000000 4
b000000000000000000000000000000000000000000000000000000000000000000 6
b00000000000000000000000000000000 9
b00000000000000000000000000000000 :
b11111110100101011111011000011001101 ;
b00000000000000000000000000000001 =
b00000000000000000000000000010111 >
b00000000000000000000000000011000 ?
b00000000000000000000000000000010 @
b00000000000000000000000000011001 A
#1000
0(
1)
0.
#1500
0)
0*
#2000
1)
#2500
0)
1*
#3000
1)
#3500
0)
#4000
1)
#4500
0)
#5000
1)
#5500
0)
#6000
1)
#6500
0)
#7000
1)
#7500
0)
#8000
1)
#8500
0)
#9000
1)
#9500
0)
#10000
1)
#10500
0)
#11000
1)
#11500
0)
#12000
1)
#12500
0)
#13000
1)
#13500
0)
#14000
1)
#14500
0)
#15000
1)
#15500
b11111111010101010000000100001100 #
b11100000000001110010010001000110 $
b11100000000001110010010001000110 %
0)
b111111111111111111110000 +
1,
b1101111101011111001001001 -
b1111111 /
b11111111111110000 0
b1111111111110000000000000100000000 1
b011111111111110000 3
b1110000000001000001001000000110011011101110100000 4
b000000000000000111111111100001011011110101101001000100011000000000 6
b11100000000010000010010000001100 9
b00000000000000011111111110000101 :
b11111011111010111110010010010011101 ;
#16000
1&
1)
#16500
0)
b111111111111111111110001 +
b1101111101011110111101001 -
b11111111111110001 0
b1111111111110001000000000011100001 1
b011111111111110001 3
b1110000000001000000101000001000001101111111100110 4
b000000000000000111011111100011011101100101110111101110000110000110 6
b11100000000010000001010000010000 9
b00000000000000011101111110001101 :
b11111011111010111101111010010101001 ;
#17000
1'
1)
#17500
0)
b111111111111111111110010 +
b1101111101011110110001001 -
b11111111111110010 0
b1111111111110010000000000011000100 1
b011111111111110010 3
b1110000000001000000001000001010000000010000101100 4
b000000000000000110111111100101011110010110001001111100010110011000 6
b11100000000010000000010000010100 9
b00000000000000011011111110010101 :
b11111011111010111101100010010110101 ;
#18000
1(
1)
1.
#18500
0)
b111111111111111111110011 +
b1101111101011110100101001 -
b11111111111110011 0
b1111111111110011000000000010101001 1
b011111111111110011 3
b1110000000000111111101000001011110010100001110010 4
b000000000000000110011111100111011110000110011111101111001000110110 6
b11100000000001111111010000010111 9
b00000000000000011001111110011101 :
b11111011111010111101001010011000000 ;
#19000
1)
#19500
0)
b111111111111111111110100 +
b1101111101011110011001001 -
b11111111111110100 0
b1111111111110100000000000010010000 1
b011111111111110100 3
b1110000000000111111001000001101100100110010111000 4
b000000000000000101111111101001011100110110111001000110011101100000 6
b11100000000001111110010000011011 9
b00000000000000010111111110100101 :
b11111011111010111100110010011001100 ;
#20000
1)
#20500
0)
b111111111111111111110101 +
b1101111101011110001101001 -
b11111111111110101 0
b1111111111110101000000000001111001 1
b011111111111110101 3
b1110000000000111110101000001111010111000011111110 4
b000000000000000101011111101011011010100111010110000010010100010110 6
b11100000000001111101010000011110 9
b00000000000000010101111110101101 :
b11111011111010111100011010011010111 ;
#21000
1)
#21500
0)
b111111111111111111110110 +
b1101111101011110000001001 -
b11111111111110110 0
b1111111111110110000000000001100100 1
b011111111111110110 3
b1110000000000111110001000010001001001010101000100 4
b000000000000000100111111101101010111010111110110100010101101011000 6
b11100000000001111100010000100010 9
b00000000000000010011111110110101 :
b11111011111010111100000010011100011 ;
#22000
1)
#22500
0)
b111111111111111111110111 +
b1101111101011101110101001 -
b11111111111110111 0
b1111111111110111000000000001010001 1
b011111111111110111 3
b1110000000000111101101000010010111011100110001010 4
b000000000000000100011111101111010011001000011010100111101000100110 6
b11100000000001111011010000100101 9
b00000000000000010001111110111101 :
b11111011111010111011101010011101110 ;
#23000
1)
#23500
0)
b111111111111111111111000 +
b1101111101011101101001001 -
b11111111111111000 0
b1111111111111000000000000001000000 1
b011111111111111000 3
b1110000000000111101001000010100101101110111010000 4
b000000000000000011111111110001001101111001000010010001000110000000 6
b11100000000001111010010000101001 9
b00000000000000001111111111000100 :
b11111011111010111011010010011111001 ;
#24000
1)
#24500
0)
b111111111111111111111001 +
b1101111101011101011101010 -
b11111111111111001 0
b1111111111111001000000000000110001 1
b011111111111111001 3
b1110000000000111100101000010110100000001000010110 4
b000000000000000011011111110011000111101001101101011111000101100110 6
b11100000000001111001010000101101 9
b00000000000000001101111111001100 :
b11111011111010111010111010100000101 ;
#25000
1)
#25500
0)
b111111111111111111111010 +
b1101111101011101010001010 -
b11111111111111010 0
b1111111111111010000000000000100100 1
b011111111111111010 3
b1110000000000111100001000011000010010011001011100 4
b000000000000000010111111110101000000011010011100010001100111011000 6
b11100000000001111000010000110000 9
b00000000000000001011111111010100 :
b11111011111010111010100010100010000 ;
#26000
1)
#26500
0)
b111111111111111111111011 +
b1101111101011101000101010 -
b11111111111111011 0
b1111111111111011000000000000011001 1
b011111111111111011 3
b1110000000000111011101000011010000100101010100010 4
b000000000000000010011111110110111000001011001110101000101011010110 6
b11100000000001110111010000110100 9
b00000000000000001001111111011011 :
b11111011111010111010001010100011011 ;
#27000
1)
#27500
0)
b111111111111111111111100 +
b1101111101011100111001010 -
b11111111111111100 0
b1111111111111100000000000000010000 1
b011111111111111100 3
b1110000000000111011001000011011110110111011101000 4
b000000000000000001111111111000101110111100000100100100010001100000 6
b11100000000001110110010000110111 9
b00000000000000000111111111100010 :
b11111011111010111001110010100100101 ;
#28000
1)
#28500
0)
b111111111111111111111101 +
b1101111101011100101101010 -
b11111111111111101 0
b1111111111111101000000000000001001 1
b011111111111111101 3
b1110000000000111010101000011101101001001100101110 4
b000000000000000001011111111010100100101100111110000100011001110110 6
b11100000000001110101010000111011 9
b00000000000000000101111111101010 :
b11111011111010111001011010100110001 ;
#29000
1)
#29500
0)
b111111111111111111111110 +
b1101111101011100100001010 -
b11111111111111110 0
b1111111111111110000000000000000100 1
b011111111111111110 3
b1110000000000111010001000011111011011011101110100 4
b000000000000000000111111111100011001011101111011001001000100011000 6
b11100000000001110100010000111110 9
b00000000000000000011111111110001 :
b11111011111010111001000010100111011 ;
#30000
1)
#30500
0)
b111111111111111111111111 +
b1101111101011100010101010 -
b11111111111111111 0
b1111111111111111000000000000000001 1
b011111111111111111 3
b1110000000000111001101000100001001101101110111010 4
b000000000000000000011111111110001101001110111011110010010001000110 6
b11100000000001110011010001000010 9
b00000000000000000001111111111000 :
b11111011111010111000101010101000110 ;
#31000
1)
#31500
b11110100101011111011000011001101 #
b00010110101000001001111001100110 $
b00010110101000001001111001100110 %
0)
b000000000000000000000000 +
0,
b1111010010101111101100001 -
b0000000 /
b00000000000000000 0
b0000000000000000000000000000000000 1
b000000000000000000 3
b0000000000000000000000000000000000000000000000000 4
b000000000000000000000000000000000000000000000000000000000000000000 6
b00000000000000000000000000000000 9
b00000000000000000000000000000000 :
b11111110100101011111011000011001101 ;
#32000
0&
1)
#32500
0)
#33000
0'
1)
#33500
0)
#34000
0(
1)
0.
