verilator/dump.vcd
$version Generated by VerilatedVcd $end
$timescale 1ps $end
 $scope module top $end
  $scope module $unit $end
   $var wire 32 5 X_I [31:0] $end
   $var wire 32 6 X_F [31:0] $end
   $var wire 32 7 X_W [31:0] $end
   $var wire 32 8 Y_I [31:0] $end
   $var wire 32 6 Y_F [31:0] $end
   $var wire 32 7 Y_W [31:0] $end
  $upscope $end
  $var wire 1 ) clk $end
  $var wire 1 * rst_b $end
  $var wire 24 + x [23:0] $end
  $var wire 1 , x_dv $end
  $var wire 24 - y [23:0] $end
  $var wire 1 . y_dv $end
  $scope module quadra_top $end
   $var wire 1 ) clk $end
   $var wire 1 * rst_b $end
   $var wire 24 + x [23:0] $end
   $var wire 1 , x_dv $end
   $var wire 24 - y [23:0] $end
   $var wire 1 . y_dv $end
   $var wire 1 & dv_p0 $end
   $var wire 1 ' dv_p1 $end
   $var wire 1 ( dv_p2 $end
   $var wire 7 / x1 [23:17] $end
   $var wire 17 0 x2 [16:0] $end
   $var wire 32 # a [31:0] $end
   $var wire 32 $ b [31:0] $end
   $var wire 32 % c [31:0] $end
   $var wire 24 1 y_q [23:0] $end
   $scope module lut_inst $end
    $var wire 7 / x1 [23:17] $end
    $var wire 32 # a [31:0] $end
    $var wire 32 $ b [31:0] $end
    $var wire 32 % c [31:0] $end
   $upscope $end
   $scope module quadra_inst $end
    $var wire 17 0 x2 [16:0] $end
    $var wire 32 # a [31:0] $end
    $var wire 32 $ b [31:0] $end
    $var wire 32 % c [31:0] $end
    $var wire 24 1 y [23:0] $end
    $var wire 34 2 x2_sq [33:0] $end
    $var wire 24 4 y_result [23:0] $end
    $scope module sq_unit $end
     $var wire 17 0 x2 [16:0] $end
     $var wire 34 2 sq [33:0] $end
    $upscope $end
   $upscope $end
  $upscope $end
 $upscope $end
$enddefinitions $end


#500
b11110100101011111011000011001101 #
b00010110101000001001111001100110 $
b00010110101000001001111001100110 %
0&
0'
1(
0)
1*
b000000000000000000000000 +
0,
b101011111011000011001101 -
1.
b0000000 /
b00000000000000000 0
b101011111011000011001101 1
b0000000000000000000000000000000000 2
b100011001010111111000101 4
b00000000000000000000000000000001 5
b00000000000000000000000000010111 6
b00000000000000000000000000011000 7
b00000000000000000000000000000010 8
#1000
0(
1)
0.
#1500
0)
0*
#2000
1)
#2500
0)
1*
#3000
1)
#3500
0)
#4000
1)
#4500
0)
#5000
1)
#5500
0)
#6000
1)
#6500
0)
#7000
1)
#7500
0)
#8000
1)
#8500
0)
#9000
1)
#9500
0)
#10000
1)
#10500
0)
#11000
1)
#11500
0)
#12000
1)
#12500
0)
#13000
1)
#13500
0)
#14000
1)
#14500
0)
#15000
1)
#15500
b11111111010101010000000100001100 #
b11100000000001110010010001000110 $
b11100000000001110010010001000110 %
0)
b111111111111111111110000 +
1,
b100001110000001010101100 -
b1111111 /
b11111111111110000 0
b100001110000001010101100 1
b1111111111110000000000000100000000 2
#16000
1&
1)
#16500
0)
b111111111111111111110001 +
b110010001100001001111000 -
b11111111111110001 0
b110010001100001001111000 1
b1111111111110001000000000011100001 2
#17000
1'
1)
#17500
0)
b111111111111111111110010 +
b000110001100101011010000 -
b11111111111110010 0
b000110001100101011010000 1
b1111111111110010000000000011000100 2
#18000
1(
1)
1.
#18500
0)
b111111111111111111110011 +
b011101110001101110110100 -
b11111111111110011 0
b011101110001101110110100 1
b1111111111110011000000000010101001 2
#19000
1)
#19500
0)
b111111111111111111110100 +
b111000111011010100100100 -
b11111111111110100 0
b111000111011010100100100 1
b1111111111110100000000000010010000 2
#20000
1)
#20500
0)
b111111111111111111110101 +
b010111101001011100100000 -
b11111111111110101 0
b010111101001011100100000 1
b1111111111110101000000000001111001 2
#21000
1)
#21500
0)
b111111111111111111110110 +
b111001111100000110101000 -
b11111111111110110 0
b111001111100000110101000 1
b1111111111110110000000000001100100 2
#22000
1)
#22500
0)
b111111111111111111110111 +
b011111110011010010111100 -
b11111111111110111 0
b011111110011010010111100 1
b1111111111110111000000000001010001 2
#23000
1)
#23500
0)
b111111111111111111111000 +
b001001001111000001011100 -
b11111111111111000 0
b001001001111000001011100 1
b1111111111111000000000000001000000 2
#24000
1)
#24500
0)
b111111111111111111111001 +
b110110001111010010001000 -
b11111111111111001 0
b110110001111010010001000 1
b1111111111111001000000000000110001 2
#25000
1)
#25500
0)
b111111111111111111111010 +
b100110110100000101000000 -
b11111111111111010 0
b100110110100000101000000 1
b1111111111111010000000000000100100 2
#26000
1)
#26500
0)
b111111111111111111111011 +
b011010111101011010000100 -
b11111111111111011 0
b011010111101011010000100 1
b1111111111111011000000000000011001 2
#27000
1)
#27500
0)
b111111111111111111111100 +
b010010101011010001010100 -
b11111111111111100 0
b010010101011010001010100 1
b1111111111111100000000000000010000 2
#28000
1)
#28500
0)
b111111111111111111111101 +
b001101111101101010110000 -
b11111111111111101 0
b001101111101101010110000 1
b1111111111111101000000000000001001 2
#29000
1)
#29500
0)
b111111111111111111111110 +
b001100110100100110011000 -
b11111111111111110 0
b001100110100100110011000 1
b1111111111111110000000000000000100 2
#30000
1)
#30500
0)
b111111111111111111111111 +
b001111010000000100001100 -
b11111111111111111 0
b001111010000000100001100 1
b1111111111111111000000000000000001 2
#31000
1)
#31500
b11110100101011111011000011001101 #
b00010110101000001001111001100110 $
b00010110101000001001111001100110 %
0)
b000000000000000000000000 +
0,
b101011111011000011001101 -
b0000000 /
b00000000000000000 0
b101011111011000011001101 1
b0000000000000000000000000000000000 2
#32000
0&
1)
#32500
0)
#33000
0'
1)
#33500
0)
#34000
0(
1)
0.
